\relax 
\providecommand\hyper@newdestlabel[2]{}
\citation{ggzh_norm}
\citation{ggzh_norm_nll}
\citation{}
\citation{}
\citation{}
\citation{}
\citation{}
\@writefile{toc}{\contentsline {section}{\numberline {1}TITLE\nobreakspace  {}\footnote { A.\nobreakspace  {}Einstein, F.\nobreakspace  {}Gauss}{}}{2}{section.0.1}}
\newlabel{sec:projname}{{1}{2}{TITLE~\protect \footnote { A.~Einstein, F.~Gauss}{}}{section.0.1}{}}
\@writefile{toc}{\contentsline {subsection}{\numberline {1.1}Introduction}{2}{subsection.0.1.1}}
\newlabel{sec:projname:introduction}{{1.1}{2}{Introduction}{subsection.0.1.1}{}}
\citation{}
\@writefile{lof}{\contentsline {figure}{\numberline {1}{\ignorespaces Sample Feynman diagrams that contribute to the $gg \rightarrow ZH$ at leading order.}}{3}{figure.0.1}}
\newlabel{fig:projname:LOdiagrams}{{1}{3}{Sample Feynman diagrams that contribute to the $gg \rightarrow ZH$ at leading order}{figure.0.1}{}}
\@writefile{toc}{\contentsline {subsection}{\numberline {1.2}Monte Carlo Setup}{3}{subsection.0.1.2}}
\newlabel{sec:projname:MCsetup}{{1.2}{3}{Monte Carlo Setup}{subsection.0.1.2}{}}
\@writefile{toc}{\contentsline {subsubsection}{\numberline {1.2.1}SHERPA}{3}{subsubsection.0.1.2.1}}
\newlabel{subsec:projname:SHERPA}{{1.2.1}{3}{SHERPA}{subsubsection.0.1.2.1}{}}
\@writefile{toc}{\contentsline {subsubsection}{\numberline {1.2.2}POWHEG+Pythia8}{3}{subsubsection.0.1.2.2}}
\newlabel{subsec:projname:PP8}{{1.2.2}{3}{POWHEG+Pythia8}{subsubsection.0.1.2.2}{}}
\@writefile{toc}{\contentsline {subsection}{\numberline {1.3}Analysis and Results}{3}{subsection.0.1.3}}
\newlabel{sec:projname:rivetresults}{{1.3}{3}{Analysis and Results}{subsection.0.1.3}{}}
\@writefile{toc}{\contentsline {subsection}{\numberline {1.4}Conclusions}{4}{subsection.0.1.4}}
\newlabel{sec:projname:conclusions}{{1.4}{4}{Conclusions}{subsection.0.1.4}{}}
\@writefile{toc}{\contentsline {subsection}{\numberline {1.5}Acknowledgements}{4}{subsection.0.1.5}}
\newlabel{sec:projname:acknowledgements}{{1.5}{4}{Acknowledgements}{subsection.0.1.5}{}}
\@setckpt{projname.main}{
\setcounter{page}{5}
\setcounter{equation}{0}
\setcounter{enumi}{0}
\setcounter{enumii}{0}
\setcounter{enumiii}{0}
\setcounter{enumiv}{0}
\setcounter{footnote}{1}
\setcounter{mpfootnote}{0}
\setcounter{part}{0}
\setcounter{chapter}{0}
\setcounter{section}{1}
\setcounter{subsection}{5}
\setcounter{subsubsection}{0}
\setcounter{paragraph}{0}
\setcounter{subparagraph}{0}
\setcounter{figure}{1}
\setcounter{table}{0}
\setcounter{LT@tables}{0}
\setcounter{LT@chunks}{0}
\setcounter{parentequation}{0}
\setcounter{FancyVerbLine}{0}
\setcounter{instfoot}{0}
\setcounter{Item}{0}
\setcounter{Hfootnote}{1}
\setcounter{bookmark@seq@number}{6}
\setcounter{subfigure}{0}
\setcounter{lofdepth}{1}
\setcounter{subtable}{0}
\setcounter{lotdepth}{1}
\setcounter{@todonotes@numberoftodonotes}{0}
\setcounter{section@level}{2}
}
