[0] Config.pm:354> INFO - This is Biber 2.7
[0] Config.pm:357> INFO - Logfile is 'projname.blg'
[49] biber-darwin:303> INFO - === Wed Feb 19, 2020, 22:03:09
[201] Utils.pm:180> ERROR - Cannot find control file 'projname.bcf'! - did you pass the "backend=biber" option to BibLaTeX?
[201] Biber.pm:113> INFO - ERRORS: 1
